%YAML 1.1
%TAG !u! tag:unity3d.com,2011:
--- !u!74 &7400000
AnimationClip:
  m_ObjectHideFlags: 0
  m_CorrespondingSourceObject: {fileID: 0}
  m_PrefabInstance: {fileID: 0}
  m_PrefabAsset: {fileID: 0}
  m_Name: Ventana2
  serializedVersion: 6
  m_Legacy: 0
  m_Compressed: 0
  m_UseHighQualityCurve: 1
  m_RotationCurves: []
  m_CompressedRotationCurves: []
  m_EulerCurves: []
  m_PositionCurves: []
  m_ScaleCurves: []
  m_FloatCurves: []
  m_PPtrCurves:
  - curve:
    - time: 0
      value: {fileID: -3862462629043841172, guid: 3c40178f1bbe74e4895ccf926421c4e8, type: 3}
    - time: 13.616667
      value: {fileID: 6801078780251556811, guid: 3c40178f1bbe74e4895ccf926421c4e8, type: 3}
    - time: 27.566668
      value: {fileID: -1944925476004364934, guid: 3c40178f1bbe74e4895ccf926421c4e8, type: 3}
    - time: 41.5
      value: {fileID: -4365853333818833743, guid: 3c40178f1bbe74e4895ccf926421c4e8, type: 3}
    - time: 55.433334
      value: {fileID: -2562468122580181111, guid: 3c40178f1bbe74e4895ccf926421c4e8, type: 3}
    - time: 69.36667
      value: {fileID: -5369763034308457167, guid: 3c40178f1bbe74e4895ccf926421c4e8, type: 3}
    - time: 83.316666
      value: {fileID: -7067889197045679875, guid: 3c40178f1bbe74e4895ccf926421c4e8, type: 3}
    - time: 97.26667
      value: {fileID: 2036797490969873349, guid: 3c40178f1bbe74e4895ccf926421c4e8, type: 3}
    - time: 111.183334
      value: {fileID: 1779888331456508024, guid: 3c40178f1bbe74e4895ccf926421c4e8, type: 3}
    - time: 123.11667
      value: {fileID: 3857779653395269731, guid: 3c40178f1bbe74e4895ccf926421c4e8, type: 3}
    - time: 136.53334
      value: {fileID: 1242775013888200451, guid: 3c40178f1bbe74e4895ccf926421c4e8, type: 3}
    - time: 151.53334
      value: {fileID: -5873403962359412359, guid: 3c40178f1bbe74e4895ccf926421c4e8, type: 3}
    - time: 166.2
      value: {fileID: 7956600813785313439, guid: 3c40178f1bbe74e4895ccf926421c4e8, type: 3}
    - time: 180.03334
      value: {fileID: -7067889197045679875, guid: 3c40178f1bbe74e4895ccf926421c4e8, type: 3}
    - time: 190.08333
      value: {fileID: 8975381248863435721, guid: 3c40178f1bbe74e4895ccf926421c4e8, type: 3}
    attribute: m_Sprite
    path: 
    classID: 212
    script: {fileID: 0}
  m_SampleRate: 60
  m_WrapMode: 0
  m_Bounds:
    m_Center: {x: 0, y: 0, z: 0}
    m_Extent: {x: 0, y: 0, z: 0}
  m_ClipBindingConstant:
    genericBindings:
    - serializedVersion: 2
      path: 0
      attribute: 0
      script: {fileID: 0}
      typeID: 212
      customType: 23
      isPPtrCurve: 1
    pptrCurveMapping:
    - {fileID: -3862462629043841172, guid: 3c40178f1bbe74e4895ccf926421c4e8, type: 3}
    - {fileID: 6801078780251556811, guid: 3c40178f1bbe74e4895ccf926421c4e8, type: 3}
    - {fileID: -1944925476004364934, guid: 3c40178f1bbe74e4895ccf926421c4e8, type: 3}
    - {fileID: -4365853333818833743, guid: 3c40178f1bbe74e4895ccf926421c4e8, type: 3}
    - {fileID: -2562468122580181111, guid: 3c40178f1bbe74e4895ccf926421c4e8, type: 3}
    - {fileID: -5369763034308457167, guid: 3c40178f1bbe74e4895ccf926421c4e8, type: 3}
    - {fileID: -7067889197045679875, guid: 3c40178f1bbe74e4895ccf926421c4e8, type: 3}
    - {fileID: 2036797490969873349, guid: 3c40178f1bbe74e4895ccf926421c4e8, type: 3}
    - {fileID: 1779888331456508024, guid: 3c40178f1bbe74e4895ccf926421c4e8, type: 3}
    - {fileID: 3857779653395269731, guid: 3c40178f1bbe74e4895ccf926421c4e8, type: 3}
    - {fileID: 1242775013888200451, guid: 3c40178f1bbe74e4895ccf926421c4e8, type: 3}
    - {fileID: -5873403962359412359, guid: 3c40178f1bbe74e4895ccf926421c4e8, type: 3}
    - {fileID: 7956600813785313439, guid: 3c40178f1bbe74e4895ccf926421c4e8, type: 3}
    - {fileID: -7067889197045679875, guid: 3c40178f1bbe74e4895ccf926421c4e8, type: 3}
    - {fileID: 8975381248863435721, guid: 3c40178f1bbe74e4895ccf926421c4e8, type: 3}
  m_AnimationClipSettings:
    serializedVersion: 2
    m_AdditiveReferencePoseClip: {fileID: 0}
    m_AdditiveReferencePoseTime: 0
    m_StartTime: 0
    m_StopTime: 190.09999
    m_OrientationOffsetY: 0
    m_Level: 0
    m_CycleOffset: 0
    m_HasAdditiveReferencePose: 0
    m_LoopTime: 1
    m_LoopBlend: 0
    m_LoopBlendOrientation: 0
    m_LoopBlendPositionY: 0
    m_LoopBlendPositionXZ: 0
    m_KeepOriginalOrientation: 0
    m_KeepOriginalPositionY: 1
    m_KeepOriginalPositionXZ: 0
    m_HeightFromFeet: 0
    m_Mirror: 0
  m_EditorCurves: []
  m_EulerEditorCurves: []
  m_HasGenericRootTransform: 0
  m_HasMotionFloatCurves: 0
  m_Events: []
